* LTspice Encrypted File
* 
* This encrypted file has been supplied by a 3rd
* party vendor that does not wish to publicize
* the technology used to implement this library.
* 
* Permission is granted to use this file for
* simulations but not to reverse engineer its
* contents.
* 
*********************************************************************
*  (C) Copyright 2019 Toshiba Electronic Devices & Storage Corporation
*  Date                 : 21/12/2016
*  File Name            : BAV99.mod
*  Part Number          : BAV99
*  Parameter Ver.       : Ver.1
*  Simulator            : LTspice
*  Model Call Name      : DIODE_BAV99
*  TNOM                 : 25 degree
*  Pin Assign           :1=Anode1 2=Cathode2 3=Cathode1&Anode2
*
* Operation of this model has been verified only on the LTspice.
*********************************************************************
* Begin:
 6A E0 CE 3B 86 3D AD A5 15 B8 86 3B 46 CD 24 B1
 01 96 E6 71 69 F0 93 8D C4 CC EC 79 2D FE 8E D2
 B4 49 56 82 E2 4D A8 22 92 6F 7C 84 25 69 D2 F7
 59 C6 F2 5E 4A C2 8E 72 EA 07 62 20 4C 5D 5C 80
 D5 E8 89 A3 84 97 48 23 5B 27 4B 35 62 AC 86 8B
 F9 45 DE 20 EF BC 95 FC 9A 5B 61 03 3F 84 37 34
 21 C7 87 D2 2F 76 9C C4 83 CD 1C DA C5 68 8D A6
 79 67 42 8B 67 46 B6 43 E7 73 72 0E C9 2C 7C 2B
 C6 6F 80 C3 A4 4B BB A4 A9 AD C8 EF 27 2B AB D9
 62 58 13 D4 ED 50 59 2E F1 98 43 A7 1B 51 55 BC
 EA 81 F0 45 47 2E 3D 15 7A D7 95 54 79 A1 85 0A
 5E 62 BE 2D 36 C4 56 89 4B 3C 79 F3 2A CE B8 86
 03 F3 34 3E 83 92 B4 38 5D C7 E9 7D 95 9E D5 CF
 FD 62 0A 5A FF 7E 20 30 E6 41 56 D2 4F E7 AF 6C
 90 33 64 FA 04 4A 47 31 C1 15 C4 5B 24 73 82 CE
 C5 8D 94 F6 1F 9E B5 5A 9E 5A ED C0 7D E4 22 24
 74 12 AA 63 1E FB 7F 60 E7 DF 8C 21 CD 07 64 B5
 C8 7B EC A2 2F 18 C9 F9 FE 4F E3 82 91 18 27 67
 11 00 85 54 51 A4 33 34 44 E3 03 AA BA 4F 0D 66
 6C 53 D3 9B 31 6D 4E 11 EB F2 37 54 91 EF 98 D9
 EE 24 86 87 68 26 43 F3 E7 1D 10 A3 F4 E6 73 1D
 E0 25 FE B6 EC DC 23 EF 77 8E B5 97 B1 35 88 B3
 9B 86 A5 68 BF 92 C5 98 73 36 ED DB 04 AF 16 6D
 84 29 5A C2 DA 7E CC 69 CE 87 84 73 39 A9 30 59
 46 26 54 48 67 D1 6E 29 EB 24 38 54 52 E0 D9 28
 CD 07 ED DC B5 BA 78 C6 30 DD EC C1 ED 44 E4 90
 BA D7 75 4F F6 DD C9 E1 DE B0 C2 E2 86 33 20 28
 D9 0A 94 59 AC DE 15 FF 72 4D 7F 9E 2F FE 29 7A
 54 5C 73 BA C5 2D A3 44 42 A1 A3 81 3C 0B 3B E6
 2F 01 35 7A CB 69 10 98 0D D9 C0 B1 5B 16 78 E1
 41 D3 BE D3 42 65 F2 91 6E B4 0C EA D6 9F F8 C5
 4D EE 05 E0 14 B6 40 A0 7D E2 E0 20 82 D6 0F C6
 FE 5B 2E 5B 50 02 0B 2E 0E F1 A5 F7 4B 02 7B 68
 C8 19 63 8D 6E C0 CB 8A 4D 34 26 89 64 34 DB 42
 E6 77 B6 71 D6 70 15 55 2C 97 70 DD 04 F3 AF 02
 18 81 B8 87 F7 2A 5F 68 41 18 88 F3 9E 7A 0C 8A
 91 45 77 BC 93 85 EF EF 45 F7 BD 2A C1 98 FC BC
 49 41 1E BC 07 23 2C 9E D9 D6 1D 40 89 4D 52 3D
 DB C3 5C 90 5C DF F6 65 88 5E 54 2C FD 23 66 39
 6F D8 2F DB CE 2E B5 A7 FE EF 11 10 8E 7D 91 36
 E0 59 F4 8E 74 E1 96 19 7E 63 D2 DC A3 05 23 56
 4C EF 32 42 FB D6 16 11 2F 89 05 83 09 8F A0 35
 B5 86 3F 86 AA CC E6 BB 9F 83 F2 73 C2 24 BD FB
 06 58 2B 2B 04 3A 6D A0 77 CE 7B 53 37 78 4F 84
 9F CD C2 25 F9 E8 13 F7 3B 2E 19 50 CB 3D 52 F7
 0C D0 F7 33 FE EA E7 F0 EA 42 F2 EB 31 EB F1 4E
 52 DB 40 03 24 84 08 C7 B7 FC A0 09 5A A8 D8 C0
 6F C6 9A F7 EF C2 45 1F 6E 57 BE 37 4E C6 84 F9
 3C 10 78 94 EA CE AA E8 E6 45 41 E7 36 68 07 22
 97 4A 62 8F FA F1 BE E7 DD A5 EE C3 87 8A 5F 39
 6B 72 AA 20 EB EA A0 0D E6 37 2D A4 71 4F 10 AD
 D1 41 51 A0 E8 C9 CB 6E D6 9B 8B 2E 73 7C 72 82
 A5 1C C5 C7 22 0E 5B A9 1A CA 32 23 CF 41 1A 41
 34 A0 7D D9 60 B5 77 37 A3 D9 CF 80 57 84 E5 28
 47 8B 3F 26 6F C4 FB 3C 0C E4 AB F0 84 00 20 8F
 AC A0 4E 3B 0D 4E D9 4F 7F 00 D0 95 16 2F EB CE
 CC 2B C2 E4 4B 2E 6E 6F BF 15 DB C8 BD 1D 86 6F
 6A DA 0E 9E A7 9E 27 B9 84 09 C2 10 D4 F4 18 21
 9C 3F 32 AD 17 84 32 4E F9 A5 A3 B4 1E 33 E3 70
 33 FC B2 AB C5 13 D2 16 B4 A4 77 BC 7A A8 6D FE
 C3 E0 D1 C7 25 77 B6 22 ED 69 B7 82 61 E5 F3 63
 13 20 7D 7C F5 42 41 F9 E7 37 78 27 C2 1A 8D 68
 14 95 C2 65 E9 40 FB 86 C3 36 70 9E F0 E3 2C 7C
 07 47 01 AA 93 62 42 25 8C 6D 84 90 02 DE 3A 65
 1E 9A C5 61 F4 01 D0 12 0F 06 2A 22 3C A5 6F C0
 0A CC BD C4 0A 26 90 1E 0B 1B 03 EF 3C 20 80 F2
 3A 9E 99 61 FC EC C6 73 89 59 24 9C 66 D3 53 2A
 90 14 09 94 6D 8C F5 BB 81 45 1C 70 69 59 68 56
 93 A6 2F 1E 0F 98 9F D8 3A 4A A6 0C 9D A8 93 C0
 47 93 A2 80 27 80 D3 35 9D 92 DA 94 44 34 9B 27
 6C FB D3 E6 2F FC 59 BE 61 92 C4 89 73 EC 86 16
 34 44 34 DD 20 BE B9 E6 C5 86 67 7E 0A E3 F4 D7
 A7 30 C6 03 EF 05 1A 31 64 3D C2 63 E3 74 C8 1F
 91 26 F7 AF D0 58 C1 36 87 F4 05 0E A2 BC C7 56
 4E 1F 50 74 BD B0 71 BD 3B 07 DD 73 38 AD FA E9
 98 D5 6D CF B1 20 6D 2A 1F D7 F3 3B BA C5 6E 73
 DA 4E 8E AD 16 D3 56 B8 98 69 B8 EB 44 E2 2C DD
 77 47 91 EF 62 A7 0E B4 60 E3 FC 9F 5B AD CD 9E
 E1 CF A9 A5 CA DB 1F 41 83 F7 9F 3C 54 60 D6 97
 BC 95 56 FB 21 F5 A9 04 FF 37 02 7F 2D 8B 5E 90
 B8 1C ED 32 1A E8 C2 65 7B F6 65 E9 11 4F 31 61
 7F 0E 08 9C 3E 11 5C FE 7E E3 60 61 D5 77 A3 4E
 02 AA 14 95 FD 1A 05 30 CB 91 98 0C 72 C9 05 75
 94 9B 86 EB 98 5A 1D FC 24 A0 4C 07 C7 D1 9B C3
 E8 13 BA 4C 17 34 70 5D D4 2A 17 4D 97 7F 5B 83
 BF B6 80 67 B2 AD E8 88 FA 78 82 C2 51 BA A7 58
 76 87 9F E7 E1 EC A1 3B 0C 23 D6 E9 1F 1D 99 A2
 F7 C0 18 89 E9 C4 42 C0 CD 3E 01 12 0A C5 50 40
 5C C1 9E 34 64 B6 E6 93 6E E3 0A BF B5 39 ED 55
 08 6C 5C 06 CC 60 8A AF 4D 44 7D D5 4C 62 53 E7
 B2 96 8F A3 68 F5 6B 83 A1 CA D4 61 73 DD 58 F8
 E2 97 00 DF BC 36 3E E6 0B C8 3D 7D D6 EC 3A 18
 68 79 1D B3 53 D2 26 D1 03 D6 18 4D 5B CA 0F 09
 91 EC A4 AD 1B 1D 77 87 20 CC 60 AF 7A C0 BC C6
 5F 95 CA 5F 06 8F AF 7E B7 37 DF C6 35 0A 3A D7
 EF B0 18 8E 0A 87 5E 84 F2 51 63 C8 73 7A 1A D2
 72 C0 BA FE A0 7F 77 11 2A D3 A8 BE 35 3B E0 6D
 D2 9C 19 15 07 13 25 67 37 75 D1 6C AB 6D 2C 8C
 2E 09 91 09 BA CA 3E 37 25 64 48 6A 77 60 A0 A6
 99 E0 B6 88 52 97 3F EE 73 55 5D AA 17 C9 66 84
 E2 6F 4E E6 18 53 A2 22 36 6B 77 84 90 A5 6B 66
 A4 7C 92 A5 F2 08 61 BB 60 38 D6 BC 55 A6 AC 22
 59 D4 5D 0F B9 A6 A1 AD 6B C3 A2 07 DE 66 CF DB
 D6 83 22 E0 76 1A EB FA DD 98 20 DC 2F 19 F3 7A
 6B 68 5E C8 D7 C7 EB 20 31 47 4C 35 18 6A 73 96
 61 0E E2 8B 67 B4 B0 30 AF 79 41 56 72 F1 7E A4
 AD 9D 3E C1 63 F0 52 BF EB E5 1F 58 8A 56 30 9B
 78 85 FA 03 8E 9B D3 2C 16 F2 C5 96 C1 C4 35 36
 9E A9 48 38 AC E5 2F FA 49 85 6E C3 B5 40 A0 56
 B5 C1 B8 BE E1 71 C8 3E 10 D3 AA 02 E2 20 2C 57
 FA 24 EF 7B 16 9D 12 73 E2 DF 07 EC EA 4C 81 B2
 85 F7 69 0E F0 23 9C 56 AF E4 24 05 EC 93 E8 8C
 F8 39 9B CC 1F DF D7 7B FD D8 28 4E 6C 28 C1 D9
 CB 4F 27 2E F2 1C 72 67 80 D3 0C 84 3F EB 4C B3
 49 E8 07 49 6B CF 08 52 E5 79 29 DC 1D 1C 28 52
 FF 2E D5 95 EA 21 30 0C 05 73 4A 05 64 88 30 8F
 1A DC 01 F5 24 28 07 5B 32 9B 94 95 44 9B B0 72
 B5 7B 48 72 5B 54 2A D7 8A 7F F8 9C C8 3A AE C9
 AF 90 D8 9F F7 FF F4 49 F2 2D A8 CC 25 03 1E DD
 F7 9B 3A A4 82 FA 22 AB 6B 13 01 DF 42 9A E3 AD
 71 6C A5 8E B9 1B 7D 8C 8F 35 81 2B 06 44 AD F5
 EA 4D 6E B8 65 42 82 2A 31 5E 7D 38 51 DD 78 A1
 B2 74 68 EC B0 E0 01 42 86 50 86 4E E8 C6 9B 39
 BC 54 A8 E5 45 8E 47 4B 6C FD 1A 47 11 67 08 2C
 56 9C 6D 81 25 DC 06 06 DD 41 3E B2 9B A4 0E 3D
 E3 5A E8 2B 52 24 BE 8D 19 B7 F4 03 B4 98 79 78
 C5 15 92 E8 12 32 98 06 32 CC E3 33 77 B8 2A 62
 30 EA 96 FF 17 13 D6 87 81 30 5F 6C D6 24 63 A9
 65 3D B9 04 2C B8 D5 9D 14 A1 DF 4F B7 CF 03 AE
 C1 5A 4D 4D 93 A6 76 CE 19 24 7F D0 3C D1 0E A4
 07 10 1B 0C F9 30 4F AC AF 71 7F 27 57 AA 40 B8
 77 8A 04 33 C0 67 02 7A 91 DA 62 41 7B 40 CF 7D
 C8 74 CE AF EF F0 D6 E7 B4 CD FD BD A7 97 87 96
 84 BC 92 05 AA DD 50 D0 EB 40 55 2C 7E 2F 37 B9
 85 DE FB 3F 0B 57 CE D1 0E C7 5E AC BA 07 1A 28
 97 98 80 1C 76 9D B8 BD E8 BE F0 C2 8A 5E 24 B6
 59 9E E8 7A 95 B7 EF FD ED F1 E2 5A 69 C4 A2 2C
 4C 15 97 9F E7 D0 22 C5 9C A7 D0 7B FD 6F 8B C3
 2C D1 27 02 02 C1 F2 33 C3 A7 DB 2E E5 B0 C2 84
 1D 27 5B E7 5E E3 8E E9 1D 44 19 E9 86 33 80 16
 C0 E4 9A DC 4B 4E EB 79 AA E2 ED 8C D8 BF 7A 91
 BE 92 D5 D8 9B AD E8 31 AC 8B 4B AE D4 BB 1C 2B
 EC 4F A6 D8 B4 06 8A 95 EA 06 94 E0 01 2D 5E BB
 D9 1D 51 A2 99 5E 08 0F 45 1F B6 92 87 57 CB 73
 32 9C E7 9D F2 5B C0 0F 31 DC 07 6E 48 87 2E 41
 C7 2B 41 83 3C 1B 2A 01 37 5D 54 74 3E 38 F3 61
 94 F8 61 1B A9 DF 4A 28 A5 F2 20 70 FD 64 97 36
 4F 1F 12 73 DE DB 7A B5 9C E9 F7 75 39 A4 46 AF
 BA 08 C7 04 C3 E5 F7 7F 82 7C E2 11 D8 85 F2 EF
 B9 E5 AC 6D 15 2C 7E C3 50 CC B8 11 FC C2 D5 EE
 EE C6 8C C9 D9 65 3E E5 01 8F 13 3F 7A 42 FE 4B
 D0 61 05 8E E3 B8 08 7E 88 0E 41 7A DB BB B2 CA
 C0 49 1B A5 83 9A D2 FF D3 51 4F 4B B2 58 C6 C7
 F6 8C 1D 0B 78 38 0F 17 D8 BC A5 D5 F4 60 41 B7
 BB 5B 96 4C 32 22 24 B3 16 EE 94 50 8F 24 F6 5E
 21 44 BC 8E A2 96 01 5A 64 2D 07 F0 BE 16 D0 4D
 15 42 F2 2A B2 B4 99 F3 2F 30 8C E1 6F 27 05 78
 A7 2E 44 06 CA 60 A1 6B 39 9E 5A A3 59 52 12 21
 C3 99 6C D2 8A 9C B5 4A 99 8C C9 77 D5 1B C7 59
 CF C5 75 33 40 02 9B 91 58 24 28 38 17 1C 09 57
 E1 B5 BF 19 58 58 A0 2D A5 C1 F3 90 B8 C8 0E 5E
 84 BC E2 7F 54 74 45 5F 8C 1A 73 FA FE EA 28 40
 9F 95 D9 FB 70 B2 66 D7 1A 58 EE CE FA 5B CA CC
 DC DB B2 9D 39 BB 00 86 62 E3 9B 6A 93 17 F1 80
 8B 64 A5 9A DB D7 B0 42 59 C8 A5 42 2B 68 A0 0A
 38 D4 25 E4 2C FD 6C 4B 72 DE 90 35 4A 0E 7A 68
 9A 35 62 26 F2 D0 A4 CC E1 AD 76 25 D1 3D E2 37
 98 B0 8C 7E 01 E9 9F 45 C2 1A 94 5A 02 B8 37 36
 42 0D 1C 97 6D 37 08 F6 3F 4E AE 3F A1 D9 4B 06
 1E E9 27 BA 92 DE F2 B5 D9 D6 47 D8 52 8C D2 9A
 5D 61 5B BB 77 0C 23 03 C8 26 90 EA 96 E6 41 BA
 0C A6 9E C2 15 3D 00 B2 6A C0 E7 6F 88 25 FD B8
 FE 6E 0E AE E4 6E 09 0D 28 07 D4 85 B8 B4 96 CE
 D2 0E 2F 38 CD C1 73 AF CE 17 A1 A9 3F D4 82 26
 D8 54 22 24 50 DB E0 00 D7 98 FA CA E9 05 26 E3
 CF 2C 70 E4 A6 E9 F5 27 A2 8F 44 B7 9F 8B 95 4B
 E4 EE 7C 98 65 B3 9C 70 D2 F3 EC 01 2D D5 FF 85
 FB 5D ED B3 65 87 FD 38 62 13 68 C0 EC 90 AC 49
 CF 45 50 0D C5 DE E1 1E 2C 4B C1 38 E6 FB 4D 78
 BC FA 3C 08 56 B2 E2 61 23 6E D9 F5 17 BC BA 47
 5B 6B 6D 4A B0 C3 B0 18 15 93 AD 0E 24 D8 96 4A
 F5 AB EE 76 8C 65 30 B8 30 DC 53 9B C0 AA 80 4E
 03 F9 53 2E 1A FC D2 04 63 30 C0 AA A5 E6 AC 29
 C6 43 67 D1 08 B2 CA BB EA 16 AE 25 A3 DA 38 4F
 1E 69 50 76 52 05 44 4D
* End 3288421499 3475778104