* LTspice Encrypted File
* 
* This encrypted file has been supplied by a 3rd
* party vendor that does not wish to publicize
* the technology used to implement this library.
* 
* Permission is granted to use this file for
* simulations but not to reverse engineer its
* contents.
* 
*********************************************************************
*  (C) Copyright 2019 Toshiba Electronic Devices & Storage Corporation
*  Date                 : 26/07/2016
*  File name            : TK20J50D.mod
*  Part Number          : TK20J50D
*  Parameter ver.       : Ver.1
*  Simulator            : LTspice
*  Model call name      : NMOS_TK20J50D
*  TNOM                 : 25 degree
*  Pin Assign           : 1=Drain 2=Gate 3=Source
*
* Operation of this model has been verified only on the LTspice.
*********************************************************************
* Begin:
 32 04 1C C6 63 51 C0 0D E2 84 2B 02 D6 2C D5 1C
 B4 8C 1C 2A D6 DE 0F A4 B6 EA 71 C7 A4 51 4B 15
 2F 45 37 AC C8 D9 AD 0D 75 13 32 D2 9A CC C5 01
 18 7F 61 FB 1D 61 1B 2E EA C3 1B 34 13 EB 38 7C
 D2 A9 81 C2 DD 0C 7F 4C C9 30 04 F5 F2 71 67 91
 2B B0 77 5C D5 03 92 58 A9 75 4E 4F D9 56 4C 91
 4D C1 A0 D8 BF D6 39 09 D0 18 F1 BE 66 AC 80 B1
 2E 0D F4 71 F8 D1 E4 F8 1C DC 99 65 03 85 63 EE
 A6 FD 3E BC 73 D7 AF DB DC D7 9B 2D AC C7 4E 4F
 6A 73 A8 9B F5 DC 94 41 41 F2 2D B1 54 3C 97 CF
 5E B8 85 27 54 68 78 98 C0 88 0F 79 CD 77 C3 89
 7E B1 A9 39 2A E9 C0 3D C5 A5 E7 76 96 58 9C 93
 30 86 27 00 BB 70 CD FC 13 0E 75 DD AE F3 C5 0F
 43 AC 43 43 74 E5 D4 1E 5B 9A FD 1C 1B 40 E3 EF
 E0 D9 33 4D 38 56 E2 AF 9A 5E A7 66 B0 74 5C 64
 D3 24 94 D8 A0 35 08 90 0B 5C 6D F8 39 5E 9F 4D
 DF FE 71 03 58 68 BE 1D 49 0A 76 AB D0 42 3D 10
 C7 67 AE EB 0E 61 BC AC 39 E8 A8 FE E8 00 12 8F
 80 C2 42 BF 47 B4 69 1D 75 29 2C 1C 70 65 F2 F3
 26 4D 58 2F 51 75 91 83 03 35 A8 92 39 FB D0 AC
 C9 92 68 A7 5E 13 60 1D 54 2F 46 6B 77 CB D9 04
 45 9D 0F EB 79 7C 32 FC 5F EE C9 A9 A3 4C E1 D9
 6F 24 72 10 D5 7C 90 5E 2B 5D 74 0D 95 35 17 5B
 5C 91 9A 6D A8 AE 00 33 14 CB B7 B4 E1 75 EA 67
 AC C7 0C AE E0 44 D9 61 39 0A 43 9D B4 D5 D1 A5
 51 23 A7 89 9D 20 53 21 2C 40 79 4A 19 FB 3C 98
 13 AD C3 DE 1F 68 86 55 F1 18 3A 65 A2 E2 EC 54
 59 E6 10 F9 50 F4 E3 57 D7 B5 8E 83 F0 D5 4C 26
 00 E2 82 35 78 AB 75 F1 30 30 0E CD C6 8D 04 EE
 88 0E 75 32 76 05 F5 6D FB FE 91 F4 98 FA 89 D9
 DC 88 22 94 5B B9 9E E5 94 1A D9 4A 6D AE 1C EB
 46 04 95 4A 7E 4D A2 CB 29 1C 05 97 9C 97 8A 96
 AE 70 25 B8 DC 60 CF E1 3B CB C4 F5 9A BF 94 FC
 3B 74 85 4B 94 7C E3 E3 E1 D5 B3 1F 56 4A D6 79
 E9 70 16 E7 1C 24 43 1D 60 D0 56 DA 44 AC 56 8A
 2D 70 E9 A5 AD 0A F8 33 0F 1E A9 4D 75 00 9D C0
 04 02 BA A2 74 73 6D F7 E0 83 38 2A E3 2D 15 B7
 38 E4 BD 58 2E FF F4 40 13 CB 60 89 92 2C C3 72
 3A 1B 40 E7 DF B8 28 4A AC 5C 8D FB F9 28 17 AB
 AD E0 E8 4F 30 F2 70 30 A5 76 7C 84 0D A9 75 54
 39 42 07 EB C5 15 8C 1A 7D 48 C5 9E 7A 4A 75 1D
 C3 4C BB 8B F4 9C 94 CD 2F 37 0A C2 E9 19 89 D4
 72 E3 1D D8 96 DB A6 E2 40 46 92 F1 4B BE 9A B9
 61 40 ED 08 55 E9 ED 9B B5 7B AA 80 9C B1 B0 4A
 92 D1 CE 88 C9 E4 C3 8C 8A 21 70 97 7A 96 01 5B
 C4 C8 83 2C 40 7C 56 87 EF 4D 07 0B DB 64 1B 7B
 40 B4 C5 DB A6 6E 8C 5D 6E DC D8 77 C3 DD B0 96
 14 45 0E C4 59 B9 BF DC 47 B5 11 3B 3C 35 8C B2
 30 58 30 30 06 03 E5 07 12 FD 31 70 32 7C 66 D1
 02 7F 89 63 A7 9D 83 A5 A9 2D E3 D4 F4 DB 38 7D
 14 DB C7 0C 9B 8B B8 A7 0D D5 AA 43 F2 1F 27 09
 A3 D2 CD 2A 54 01 6D 52 83 25 F8 93 7B 8A F2 77
 4F A1 13 F1 CA 88 79 29 7E 00 3F 6F CA EF 57 3A
 C4 90 BD 85 7F 06 59 78 02 33 CB B5 5E 86 3B 06
 3C EF 5F 26 59 96 D8 3F 6C 27 1C 27 49 89 A7 65
 89 47 5E D9 A5 F8 60 73 C2 17 5C B5 FD 58 C0 87
 0A 53 C9 2E 6C 05 94 0B E3 B5 97 53 28 59 8D B1
 E3 F4 3B BD AD 11 02 E1 1D BE F9 F2 31 EA 86 86
 17 55 BF 2F BB 8A CC 0C FD 6A AA A9 11 44 DA 5E
 85 52 04 8C F9 73 DE 55 FC 10 58 C0 5F 99 6B E0
 93 18 5A 5A 09 A3 85 0E E3 E6 C3 DA 05 C8 B4 AC
 2E 98 11 4C 6E 3B 5A C8 A0 FF B2 A3 12 77 DA A9
 4C 42 CC 81 E7 C7 46 6E 5D 99 E5 61 13 07 9A 87
 24 C7 98 98 1A 97 D4 28 E0 C7 03 02 23 C3 E3 E1
 61 E6 C1 0E 73 80 48 1D D6 CC F8 4B 50 45 56 81
 69 70 D3 E9 17 BF 37 E6 1F 45 46 3B 10 6E 5F B6
 51 AC B9 BA 8A 6F A8 D4 0A 70 19 C3 47 A0 E3 E3
 2C 8A 9F 57 21 5C 58 F7 CA F6 2A 70 3C B6 80 47
 92 8B C1 D0 E2 A9 2A AB 82 34 B7 9B 39 D7 8E 7B
 E0 09 3F 71 43 10 AF 35 38 26 B0 52 97 60 6E 2C
 C5 AF 7B DE 3B FD B8 77 70 CD 81 03 1D 36 55 A1
 55 15 C7 77 D4 6A AF E6 A8 43 5A 20 D7 33 B3 6E
 EE 84 51 ED 1C 09 34 3C 3E 51 E3 B8 26 28 C4 57
 3E 3A 47 4A 78 5A 08 FE E5 FD 1D 00 16 4B 49 A5
 CE C0 94 06 9E 5F 9A 25 C5 7B 8B 5C B0 0E 9A EA
 1C 60 28 97 66 B6 B5 A4 6B D7 57 34 A9 23 A8 1F
 74 EB 85 53 9F 1F D2 92 6A E7 45 16 83 8A 45 06
 29 A9 74 DF B7 37 4B 75 32 5C 6A E4 F2 F6 D1 AF
 B5 92 93 2E 70 BA B9 7C D2 8E 7C 6C 8D CA 0B 32
 04 93 12 4C 1B 1F B4 B3 D9 7E 04 33 AB BE 5C D8
 DD BA DA 19 52 30 72 70 C7 59 B0 A5 3C 82 0C A1
 C5 36 06 E3 E6 7C C5 C2 C4 81 B5 E7 68 A4 69 2A
 33 97 C1 D4 3B B3 77 04 CF 53 52 17 DD 4D 62 F2
 A9 5F 14 B3 FC 84 7D 0A CE 21 96 65 59 19 A8 C9
 06 5B 75 C3 72 25 34 B0 83 B5 18 AA 10 6F 1C 8A
 F1 1C D6 1D 7A 90 D8 D4 99 7C ED 5E 4D D4 A5 82
 40 93 AE C1 9B C3 AB 93 30 40 07 D1 50 44 C1 8A
 9B 48 2E D6 73 9E 6E 9B E1 6D 16 35 B1 E9 27 B2
 7D B6 80 2B 4D 51 92 9D 7E A3 40 A3 D5 5B A5 66
 6B FA EE 8C 72 63 38 12 60 BF B8 4D 11 80 51 8F
 D1 9F 93 DF 66 C6 01 67 D3 B4 6B 50 E2 F5 0B 6D
 0C 19 23 CE 6E 83 E2 4C C9 95 F5 7D E0 8A 9E 49
 F6 66 54 9C F9 F6 3B 8B 77 BF 10 BD 1B 3A BF 4A
 5B 06 29 C5 5E B6 13 A0 FA 53 D2 C4 C9 87 F7 C2
 EB 61 77 4F 4B 41 8E 4D EC 1D 95 40 CF 0E BF 3D
 FA 56 09 C3 17 C8 63 A3 7E CB 30 7B FA CB F8 62
 54 39 77 14 6A 11 0A 8E C7 34 4D E4 E3 C4 07 B9
 D9 CA 28 B0 CB DA 67 7C 8E 80 31 EC 37 B0 1C 41
 51 E2 30 B0 D6 79 8B E5 4D 5A 2D D0 8A B1 B1 E7
 02 52 DF 82 75 01 AD 3C 54 67 64 1E 16 8D 9F 04
 FF E5 3B 2C 68 2C 1D F0 39 53 5E 20 15 26 D9 36
 E2 DB 59 2A 8B F1 1D 40 4E BD 28 A5 D6 F9 EC 79
 70 91 E0 71 E4 4C 71 DC E2 4E 18 80 3E 2B 25 A7
 84 FF 6A 09 57 DD A6 78 0F 1E 33 B7 D8 3F 5C F8
 71 E4 7D 7F 65 40 AD F4 55 2F 42 4E EA 54 20 A1
 AB 5B E2 1F 2C 69 38 89 2C C5 F2 DF 55 A2 B1 11
 29 9F E6 65 40 01 C4 78 DF 03 DE 7E F8 70 C2 6F
 D6 22 74 12 51 CB BB A9 00 33 C4 F6 1D A0 6B 60
 26 85 13 F6 3A 92 B5 EA 7C 93 E2 9E DF B3 E2 D9
 DA 3F 29 46 49 90 82 C3 27 3D F4 E7 CD 80 73 81
 AD CF C0 84 60 4E B9 43 82 58 24 A6 69 8D DD BB
 4D 6A A9 7A FA 94 EB CA A7 56 07 E4 4F 6F 95 06
 CE E9 68 E7 5B 0C 21 A7 C6 7E 70 FB 52 BC B2 DD
 C2 07 7A 6E 59 BF FA 38 84 7A 4D FB 83 85 93 E7
 BB E7 C2 8C C1 33 CE 42 50 68 6B F9 3E BE 16 F2
 60 F8 5C 34 8E DD 92 E6 50 D1 99 87 88 6E 8A F0
 C3 DB A4 03 A9 3D C1 AF 31 E6 FA F3 E1 3C 7A E6
 99 FA 9F 60 17 32 0C 7E D6 11 B1 18 83 22 78 C3
 90 06 0E CF 39 7E E0 C6 6C B0 03 A9 23 0F 26 9C
 53 04 43 A0 C0 D1 27 A4 C4 CA 28 04 32 0A DE FB
 F0 AE 36 C9 1B 99 58 0D ED DC 8C 56 70 02 FB 70
 3F F1 73 0A C1 D3 75 57 A6 58 59 DF 49 86 2E 9C
 2D 71 0F 82 79 6C 7A 8F 87 0D F6 38 54 7A 3B 35
 73 B3 0B 20 83 41 26 57 1F 0B 35 22 41 44 B6 7F
 D0 07 4E 45 29 6B EB 6E 2D F5 D5 EC 6C 60 3B AF
 D5 FE A5 98 40 74 11 5B A2 D8 39 DC 99 D9 5F 95
 BD B5 96 F9 97 9E 8C 34 81 7E BB 2F 62 6E 21 88
 6B 5A 30 CE 0A 80 DF 5A 94 0B B5 4B A6 8D E8 2D
 21 03 BA DD 67 A5 F4 DD 63 DF CF 6C 8A C3 08 CD
 0B E2 B7 0A FA 47 E5 FA 08 57 10 47 0E 32 B6 6B
 35 A6 B0 71 BB 89 E5 65 4B 14 F5 42 FF E3 A7 6F
 EC BB FF 38 FC 15 75 22 F0 B6 E2 54 42 7F 06 5D
 68 E4 43 B0 49 0B E9 F2 89 0B 18 B2 FB 56 7F BA
 2C F3 F5 A1 7B 25 AB 53 01 61 96 07 96 52 6D C8
 DA 8D E5 6E A2 38 1D B9 9C F3 1E 7F 29 F1 C9 9E
 A7 25 79 20 7F 4B 3B 13 35 46 90 E9 65 96 78 E0
 66 F2 90 F1 1A E4 FA F0 B6 51 33 BD 43 50 2E 7E
 E4 31 B0 4B EE E9 96 58 25 1D D0 DB 56 CB A9 56
 58 F0 3E 46 AD F1 59 3D FF 1C DF 96 B1 C2 86 8C
 A9 20 3D CA EC F7 A4 CA 81 7A 52 30 6B 6A D5 76
 FB BB 57 C1 4F 03 AB E5 17 8A 7A 18 26 8B 92 E2
 35 F5 0A 77 07 AE 55 17 67 5E 7F B6 76 6D 44 79
 99 22 16 97 B0 5C FD 62 CA CB 30 FB 00 6A D4 F6
 D0 BF B1 38 0C 2B AC 3A 82 5A EC 4E A2 96 81 86
 CD 64 B2 8F DE 62 73 17 36 B9 0B 77 A9 44 DE D3
 5A ED 03 AF 58 07 0C 62 9B 4D 70 A4 17 63 BA E6
 78 3F 86 EC 76 7D 11 E2 4E 74 B9 21 14 45 3F 74
 71 3D 9D 12 2A D1 91 0F 03 56 08 30 E3 8E CC 1D
 CA 08 EC 84 81 DE C5 13 E5 EC AD FE C6 4B 38 7C
 79 02 6B F8 0E BD 5F 05 9F 95 92 1D EE F2 96 15
 A3 6E 35 A8 A3 E5 4A 09 0E 78 27 3F E5 C0 29 C3
 0F DF 87 BA 58 18 B4 48 34 41 88 2C C9 6A 57 6D
 E3 E4 77 6B 56 45 E1 E6 BD 4B 07 FF 64 FD 9B DC
 BB 3A 27 5B EB F6 27 70 F0 27 2F CB 5C 09 D8 81
 73 C1 5D 69 2B DD 8B 03 18 57 9D AA 30 2D 3D 33
 3F 35 88 84 92 B4 A7 F1 FF B7 8D 84 7F CA 12 78
 AC 15 5C 84 66 53 4E 38 3E 9A 6E 6E 98 60 B7 C6
 FC 48 42 94 92 DB E8 C2 E4 E0 9E 6F 3D DB E8 04
 48 7E 32 95 24 8A 46 8A 4F 55 82 11 B6 45 68 FB
 2C BB 6A 38 07 33 78 6D AE 72 6C 35 23 75 F3 5D
 73 C3 6A A2 F2 01 D5 2A FF EF 9E 6C A0 54 A3 9A
 4E 66 5E AF 8E FB 22 C8 E8 D7 E5 4F BD 5D 8F D1
 6A 96 1E CD C0 4A B0 85 2E 3F F7 EC A8 D4 A3 0D
 2E AC 9F 99 47 22 20 0B 2F 57 B9 3A AB 75 DA 8C
 67 B7 3A A4 F3 85 0D 03 D2 B7 39 7B C6 D5 FB C8
 70 53 A6 A1 8D B8 F1 48 78 20 C9 A2 9C B6 50 FB
 30 10 71 F0 03 88 48 36 E2 95 0F 0A DC 17 2C 2D
 9A 02 D1 58 FE 31 69 FF F3 7B 4C CD 8D 18 A0 8C
 C0 19 0A EE 22 D9 86 32 25 8E BD A1 AB E3 D6 11
 43 E6 26 8D 8C 9E 51 9A A9 18 78 B0 F9 AC FC 9D
 12 5D BA 9C 3C A9 BD FB 29 B6 38 68 4F 52 A9 CD
 61 CB 8F AF 3D EA C0 50 4D 96 E5 13 08 4A 7E 7E
 1B 52 EE B3 FD C2 F2 98 06 B7 BF 43 64 49 FD F7
 D9 45 E0 1E DB 16 82 E6 CD DF C8 93 B3 C3 C7 1E
 56 D9 F7 DA 33 FA B0 7B DF 91 AF 02 85 21 06 B8
 1E 10 62 F1 DD F3 80 05 5E 26 53 76 B7 9B F6 60
 78 0E 66 BC 91 9F 7D 49 30 21 34 12 DD 3E 0D 12
 3E 7F 02 9E 09 D6 CB C7 1A 3D B9 AD BF 49 31 9A
 20 5F 07 26 CD B8 71 01 0C BA 61 37 BA 99 BA 4B
 F8 09 A3 C2 9E 48 EC 08 D9 55 5C 82 6B C1 DF BB
 D7 02 74 70 24 6C 32 6E BB 3C DA 82 A3 9A 2B DD
 52 6C 0A A2 50 25 4E 12 B2 43 15 99 99 91 F8 91
 EA 6C 73 16 79 1D A6 C2 16 D7 A8 61 37 CF 68 7F
 DC 16 C1 2C 27 09 5A 15 4F 83 8F 57 73 5B 2E 49
 E5 64 AD AB 0E AA 69 22 AE 4C 62 DF 94 E1 22 BD
 2E 6E D8 15 CC 0E EE 9B 5A 82 0E 2C 57 C2 4B 78
 3A A2 7B 99 EA D9 A2 12 4A 84 68 0D 47 3F 1C 21
 2F 02 DC 48 B5 C9 E1 A2 11 DB CC 35 5E DB 7D C1
 D9 30 F6 B5 49 35 FD 59 C9 15 97 4D 6E 81 DE A5
 3F C0 D9 8D D5 2D 68 25 BC F2 47 DD B1 B9 FD 76
 EE 4B 80 DB B7 8B 30 62 13 CE E9 8E 46 BC 2C 88
 B3 D5 66 E9 68 FB A3 48 2D BA D7 70 0D 6D 98 6C
 D4 2E C3 FD 18 4E 5B 3A 8E E5 21 F7 8D D3 05 58
 EC 47 2C C7 9A 11 2A 44 69 73 76 3A A3 78 8D A2
 A2 9B FB D9 D4 67 8B A5 6B 1F 7F 93 1F 56 19 B5
 8A 02 00 D2 8A 4E 44 D8 A7 21 59 C7 E1 26 0A E4
 D1 9D 8E 1F 24 51 C9 8A 9F BD F4 7F E4 36 D3 8E
 6A E7 44 E3 5A C8 36 16 C7 54 81 F1 75 7D DD 8C
 7F CA 2B B9 2C 1C 93 A0 8C 73 3B FF D4 9A A8 52
 2A 86 B4 FF 25 8E 33 9C A5 CA FE 53 C6 AE B7 CA
 31 E4 CA DF 04 11 66 28 B4 B1 75 80 30 9A DF 54
 F8 8A D6 42 CA D7 88 5C 0D CB D7 15 DF DE D1 FA
 A9 5E 3E 63 6D 55 A1 97 65 6F BB 08 E7 E1 B6 B4
 49 F8 47 88 E5 83 C1 71 75 69 FF 5D 5E 51 61 08
 06 D4 47 9C 93 C7 33 19 1E E4 E3 AD 12 D9 59 68
 48 4C 1E 21 9A BC 9E 4B 50 19 E7 EE F8 C9 5B 1D
 36 5D 44 4A FC 37 52 F6 95 E8 20 E5 C8 8C 3A E1
 D3 FA D8 EB FE 5B 82 C4 07 BC 41 A1 95 26 77 65
 01 9B 66 44 C0 3A D1 65 7F EB 04 AA 4C 37 30 DA
 2D 04 9A EE E7 0E B0 31 5E B5 99 F1 75 8F F2 5E
 25 74 2C 73 23 AC 38 C6 F6 C2 D6 8D CF 83 4F 21
 A2 22 94 C4 F9 E4 AF 74 F4 F9 2D CC 33 F9 E0 E6
 95 55 D1 E0 BB F8 CE 16 E0 02 0B E1 B6 56 96 E8
 E8 2F 55 54 8D 38 33 F2 CC 57 4D 92 EF B3 67 D1
 CE 56 08 75 BE A4 B3 E7 29 67 C8 DF 23 6B D4 BE
 E9 04 22 51 CE 49 7E 79 55 7F 7D 77 E3 4A 45 EA
 9E 0F FB 99 03 D7 12 6D 5B DB BF E2 92 EF B4 34
 C6 43 89 A7 1A 8D C2 21 A2 44 3E 36 55 8C CF 31
 0B CB 6B A6 33 8D 4B FB 5B 16 54 C9 FE 44 01 DD
 3C 62 35 E6 60 CB 99 94 8F FA 7F B4 C5 78 39 56
 AA 47 FA 1D 36 CF F5 2D 29 30 35 76 3B 18 50 05
 2A DC B1 B5 75 99 F1 56 57 D5 43 15 D5 22 90 1A
 84 6B 28 7B 32 6A 83 A0 DD 4B 45 C2 DA 51 99 E6
 75 E6 37 B2 60 05 D7 04 C1 5E 89 4F 09 64 89 B0
 58 96 96 C5 65 4C B5 E6 A5 C5 02 82 E0 DB 05 8B
 3B 10 B1 40 CA F6 8F 71 43 A6 FA A0 0E 73 97 0E
 83 05 60 9B 06 B0 EF FC 60 D8 75 B9 50 D0 35 84
 3C 33 C0 59 E4 36 3B F7 F9 13 D7 DC 57 C9 B1 8F
 76 59 08 81 47 2A 31 13 A2 B3 24 7B F7 B6 21 48
 D5 FD 8E 8A BB F6 85 AD 0D EC C7 41 F6 80 84 7A
 25 79 83 52 02 58 CF 14 EA A5 FE 71 FA 94 A9 76
 54 9C 2E AE 99 08 40 4F 28 96 B4 E5 5C D3 60 03
 32 C8 6B E0 0E 4C 5D D7 EB E2 C1 95 CD 9C FB 70
 2E 33 35 6B CE 96 1F 7F 3C BF 84 C2 A7 22 A3 B2
 8A 20 8D 59 D8 F4 2C 73 31 CE 57 4C 6A 46 42 32
 A0 7D C2 AB E0 ED E6 82 82 BA BE E7 34 9E 47 E2
 CB 39 69 34 C7 E1 D1 54 FD 6B 7C C3 1E 11 D2 15
 99 36 12 18 C3 BD 44 F6 65 1A E1 CA E1 9B BE 65
 A2 22 15 E3 5E 1D 3A AD A6 62 F9 90 A7 EC E7 6C
 08 DE 9E D8 39 D2 9A 03 15 77 8A D1 43 EE 07 7D
 F2 AD 63 8C EF 3B AA 7F CC AB 8E D9 D6 55 08 2E
 27 BF A7 64 43 45 F7 04 55 49 0E 0A E0 9A D0 28
 4E 6B BB 24 7E 8C EC 0B C3 73 A8 79 B2 41 2C 51
 66 B2 2C E4 37 55 BD EF D1 B8 91 6A A5 CD C6 B3
 69 75 5C 17 6A 27 08 8F 52 5A B9 D7 93 FC D7 C1
 A3 AB BD 53 1C DE 7A FA 1C F4 74 92 F3 45 F2 C1
 44 6E 80 3C 45 D1 74 BF B0 15 2C 78 9D 61 20 0D
 0C 43 5C BD 73 83 F7 35 33 8A E9 7B A1 2E 75 5D
 BA 45 70 6F 4F 60 C1 2E 35 D4 B4 7F B4 6B 03 E6
 4C 54 74 01 2E 94 64 B8 10 33 99 F4 92 56 FF 0F
 09 68 8D AE 13 D2 14 FD DF F0 89 07 31 37 E5 5B
 91 41 E5 E5 30 8D 7E 33 CC 26 C8 64 EF 37 09 25
 8D F6 4D 27 4A 12 24 BE B7 9C B9 6C 84 FF 72 17
 1A F7 DB D2 2D 0E 42 B6 46 2C DC E7 A8 14 FF EF
 15 83 CB C2 C3 02 87 5C E9 EC 02 5C 50 24 8A 3F
 62 D3 C1 FD DF C0 3F 55 B2 C9 82 65 0A 87 E1 3C
 B7 A3 B4 6F 7E FA 18 E9 10 8D 05 CA 42 C0 80 2D
 A1 62 74 BC D7 64 6E DF ED B4 46 7A D8 B5 42 C9
 50 66 59 A3 9E 33 CE E2 BE 60 54 67 13 76 04 4B
 8B 58 EE 62 71 43 5D A2 2C A0 49 BD 9D BD 68 67
 50 9D 3C E4 8A 68 83 46 F0 A8 10 BA 86 BE 49 3D
 5E 9A F6 54 F7 CB 0D 09 EA 39 D8 E7 EB 06 C0 0B
 38 01 61 B8 00 07 02 02 3F 62 7A 88 96 D0 DD 74
 34 4B 12 06 51 59 DB 74 A5 11 17 C6 9C B7 25 3C
 92 4F 3B 80 D8 34 5D 39 5D 1F A4 54 B9 54 00 9B
 9E 76 B0 0C 2D 9E 5B AD AC 87 D6 FB 79 AF 3C 53
 A2 27 A1 5A A6 0A 58 0D 4A AF 2E AA AC 77 D2 74
 98 1F 5E 53 FA 3B B8 6C ED 80 FC AA E8 B7 8A F9
 58 DD 07 96 ED 89 56 6F 4F E6 5C 63 E9 A8 07 C5
 D0 3E 61 EA 61 B2 FF FE FD D2 72 99 E2 41 5D 31
 80 41 27 6B BC 8C A3 04 0B 79 C3 98 DE 00 24 FD
 61 D2 98 C9 E5 D3 71 86 76 78 52 71 5E AE C5 E3
 52 C1 42 2E 53 AC A4 B9 FE 78 5A C0 AD 23 AF A9
 38 BC 8E 33 81 52 CC 8A 19 21 87 8F 80 9D 87 DD
 A5 3D 57 FE 19 8C DA EC EF 70 E9 C0 7E 04 12 DB
 DC 2F 22 E3 D6 4A 2A E5 61 F8 51 B7 A0 71 50 15
 91 A5 D2 92 8B 13 EC B0 21 9A EE 6F 3B 17 60 3E
 6C 1E CD C6 3D B1 DB AA 5A F1 11 8E 07 6D 47 86
 47 91 09 D4 A4 2A C3 BB A3 3B 58 FA 11 32 D8 A0
 63 48 79 23 6A 1F A5 67 2C 05 AF 74 0B AA 2E EF
 40 BF 83 75 FF 51 D8 6F E2 F2 53 BD 6D 82 B9 A0
 F1 78 C5 B8 A8 66 72 25 5C 13 A7 8F A2 9B 31 45
 96 6E 01 2D 53 AB 0C 58 B5 D8 41 89 E2 54 8C FB
 4C DD 18 09 3E C7 D7 70 81 AC C1 20 DF 43 99 5D
 20 CC AB A6 17 0B A6 6F 1D 34 DE E2 73 C9 31 3C
 3F 08 7E EF B4 88 66 6F 6D AB 27 FD 6D 1A 93 E0
 E5 EF 4D 71 51 C7 19 48 F4 4D 56 6A 5A C8 FD 30
 F4 C4 5D DD DE 86 79 2F DA 71 6F D4 C0 5C 7F 7C
 3B 60 31 A3 9B B4 55 24 E5 4A 01 9B C5 E3 B2 C0
 D3 D5 5C 95 68 E0 EF B4 86 33 0F F8 C7 9C 06 0B
 2B 4E A3 5A 7A 71 49 9F C2 CE B2 EE D2 17 2F F7
 EF 36 BC 11 F5 6D 34 B8 4E 04 37 89 4F B0 FA 25
 6B F6 8E 93 EB 2B 0C 4E EC B4 1C BA 0B C8 76 E6
 7E A2 6A FB A8 9F 56 58 9E 6D 4D 3A A8 9B 19 00
 EF 5B E0 E4 32 93 CF 11 F8 BD CA A2 30 26 C2 DB
 40 6B 81 78 CB 47 74 F4 8A EA DF 8A 21 A3 9D 64
 F3 6B 40 54 69 DE D8 14 82 84 92 0D F4 10 D1 94
 9C 3A 13 6F 98 CF 4B 24 8A 93 2F 59 6E 74 E9 50
 3A F3 6F D4 AC 7A 19 D2 E7 C3 73 1B 9F 64 C2 9D
 F1 02 5D 0F 8B 03 51 44 B3 A8 12 D3 8E 94 4A F0
 10 1A 69 FE 24 E9 5D F0 41 7B BD 8A 8A 68 5B 61
 DD F4 16 E1 77 CE 5F 04 F5 1E 53 E0 FE C9 EC 6F
 5B 92 8C C1 28 CC BC 2A F4 7B 50 0E A8 24 37 0B
 EA A8 6E 55 58 32 D5 99 83 7C 33 2F 83 27 D0 A6
 EC 29 3E 71 66 5A 4E 6E B4 D1 98 A8 7E FC CD 9E
 20 E6 48 22 06 D8 DE 56 FE 07 F5 23 24 AE A2 C8
 B1 FD 41 CC F6 C2 1A 12 32 45 AD 0F F0 30 11 97
 0B 55 7F BC 69 68 92 58 DD F3 3B B8 5E 31 05 4C
 4B EB 7F 5D 64 3B BB 74 A3 76 43 C4 B5 D5 C2 9D
 91 0B 38 20 EF 9B F8 68 AE 79 5F BC 42 07 30 2F
 0E 55 EC FA ED 0B 81 53 CF 68 0D 67 3B 1A 48 14
 48 C9 AB 74 F2 84 AA 24 D0 32 71 BB 7E 3D 05 24
 AE 37 62 F3 92 BB 01 CF 3A 51 3E 6A 24 AB 63 6B
 9D 9D 88 16 FD 82 C3 29 67 75 F9 0A A0 DE CC 51
 D5 A7 B6 F7 8D 52 0E 9A 9F 32 DE 00 1E 6B 82 50
 9A E9 14 54 0D 17 6A 49 10 4C 06 B7 64 C0 A9 B5
 CB 38 9F 09 1C CA BE A7 28 E2 FF CB 88 BE 4B 99
 0E 0C 4E 2D BF CE 86 4E 36 95 37 F5 B6 43 1A BE
 C8 9A 0B B2 17 38 3C 99 88 A7 1B 75 30 22 0D DE
 CD 97 91 72 49 7B 67 C4 B8 AD A5 9D 5C 52 E2 24
 33 07 19 10 EF F4 29 D2 11 4B 16 E2 2D 31 CF 51
 58 CF 5A 22 74 72 6D CD 71 10 56 02 94 3E FE 40
 F8 0F CC AF EC AD 1D 8D 9A CC 53 D7 E3 33 2C 91
 C3 FC 4F 90 6C 6B 76 19 17 47 45 F9 3D 8D A4 E9
 CA 11 7F 91 02 0D 4C 11 D8 48 6F 8E 39 40 00 1A
 9A 8D 4C 96 42 CC 25 FD D5 5F 6B 45 1D A7 73 FD
 11 69 80 28 11 F2 FB B9 EB 44 FF 55 F4 3A BD C6
 DA FB B2 E4 D2 ED 76 84 D3 56 56 92 73 32 BA C5
 9C 3A 37 9D 3A B8 BE 19 99 35 A3 D4 75 27 2B 80
 33 71 AC 7D 89 B5 21 3F C2 95 CC 07 2A 57 29 C6
 DF 79 4F FC 67 7F 34 98 7D 67 43 3C CE 55 5B 8A
 50 F7 97 F0 C9 38 92 A4 8F 96 17 DC E8 74 EA D6
 5B A9 17 3C 32 A6 67 01 C8 33 F8 D6 5A DE 46 3C
 A2 F2 B6 FD EA 13 27 AF 55 BF 1F 60 62 3E C2 02
 F7 5B 84 22 48 2F 05 07 6C 23 D5 9A F7 F6 D8 FE
 36 95 B4 25 61 C5 66 A7 6B 34 E4 8C 75 4B 24 68
 08 4F 40 90 56 0E 3F 97 7F E3 D2 1E 6C E1 4A 8E
 63 DF C7 D8 5B 36 84 F6 8F CA 5D D1 AB EB 6C 40
 DB 9C 44 CB E1 9F 1C 7D 4F AE C2 D8 13 4B 1D C2
 A1 4C 0A CD 5C 9B 26 84 F7 60 7F EA 75 14 77 ED
 5F 57 68 C3 07 D1 ED D4 D4 95 31 0D 34 D1 48 F3
 88 BE 14 A9 26 80 74 0D 6C E3 11 5B 1B 85 EB 2B
 B3 D7 61 FD EF 27 C4 3A 73 13 5D 90 D2 46 1F 7A
 0C 62 55 CC 9E C1 A3 DD 55 A0 5E 94 BF E6 E4 85
 49 5D 61 70 9F 86 E1 2A AD B8 2D 19 31 B2 E0 9A
 3F 21 93 99 95 FF 7E 37 CF 6A D0 1F C3 6A A9 AF
 FF CE 52 6F F0 74 B5 AE 12 4D B8 E5 AD 3B 1C C0
 9B B7 E0 86 E9 CF 0C 52 D6 DE 1F FE 4E CF 95 33
 A8 A7 7F C2 5C 8B CC AA 32 94 30 A3 5A 28 2C F0
 9D 47 B5 74 3F 93 80 44 04 A9 E3 61 EE FB B1 0A
 C5 03 A3 43 A0 84 5B C7 99 11 7F 94 13 99 84 54
 13 61 54 17 D4 23 FA 8C 9A F9 9B 3B 5D 6C 2B 21
 7E 47 0F 61 EC E9 36 50 41 64 70 11 21 6F AE 9D
 03 AE 02 93 DE F8 54 26 E8 23 68 5B 64 30 2D 8B
 90 34 13 B4 BE E7 11 3B 35 11 9A 95 A6 6C 8D 9B
 DD 5E 39 11 58 8E 1B 2F 58 FD 3E 3E E1 2E A6 67
 75 7D 64 8A 44 CC BA 65 B0 3F A7 5C 03 C9 16 D2
 E2 EB ED 97 E4 B3 4B 2D CE 93 98 67 DE AB 9B 9F
 D4 2B A3 0C C6 54 A2 C1 B0 EA 9C 20 85 7E 7E 65
 EA F0 1B E9 45 27 8D 17 0F 81 B4 98 F0 B6 43 08
 72 62 0C 88 B5 3B 14 A2 41 B4 0B 96 CC 76 69 2E
 45 93 79 53 B2 65 0F 16 FC BA 62 A5 90 7F 90 4D
 B5 18 CA 82 4E BF EC 65 50 F8 95 CB 23 AB 50 08
 94 23 F4 73 0C 0F 4C 01 A4 77 AC 9B 07 9A 7A C6
 35 46 67 DC E1 F9 D7 D4 E5 46 26 AB 67 B6 45 A5
 9C 3D C2 8A 2B 5F 09 2E EF 3D 45 94 9A 79 1E 9D
 B3 97 7B 92 9D 1F 2A 0C D5 CF 54 71 83 EC 2E 1E
 39 6B 8F FE BA 77 D8 E2 36 17 5A 0A B1 F3 05 89
 73 7E C5 9C 82 86 71 07 5C BB 48 14 2C 8B 63 B3
 35 AE F9 85 20 25 28 3B A6 DB FA C1 03 C7 5C 81
 19 BB DA 3D C7 B0 26 30 3B 66 25 6E AA 85 2D D5
 8A 2C B4 C0 42 50 8F 00 8F 61 B2 7D A0 EC AA CE
 25 10 ED 27 BD D5 32 5B C0 C3 B5 4D F6 7D 6A C9
 17 0D 7D E5 55 67 AE 07 C9 11 4E 28 56 E2 99 9B
 B6 61 F0 BC E9 28 C1 74 3A 83 4F 6E 2E 05 F4 AC
 D7 C4 3A A4 CB 23 42 51 0F 50 25 A1 A7 9A 69 93
 7C 80 2D 08 F0 2F 55 93 35 B1 94 D8 D9 FB F9 35
 D3 A7 B9 B0 F5 3F 2B FB F9 F3 84 B7 80 D4 15 CC
 D7 E1 17 FF 1C 4D EB 75 2F B3 BF 4D 66 0A 28 6B
 87 6C D0 10 98 06 78 EE DC CA 25 90 81 0F 7D F4
 EE D6 3A 63 7D 16 C4 2E 17 26 27 74 DA 4A 8C C4
 B3 87 DE 3A 56 D3 4E C6 66 B7 14 DF 9F 63 D2 E0
 EC F7 BC D8 6D E7 63 5C 1B 48 C0 2C A1 ED 44 61
 7C C2 2F C7 E4 BD A7 92 AA 84 CB 5F B5 20 82 AE
 F4 22 E8 0F 32 03 5C 48 4C E1 76 96 62 64 70 D3
 92 2F FB 11 8B 6E 31 F3 0B F6 EE 59 16 98 C3 B1
 F7 22 6D 82 50 C3 C7 33 EE A4 0B F2 6B EB D4 EA
 AE F4 4C 18 B8 E8 66 C0 B8 8A 26 75 73 60 CB 06
 D4 B4 7B F4 64 CC 80 C2 B7 95 83 8A 68 FF 10 B4
 B6 C9 72 D5 B8 C1 E5 19 6E 67 7D 57 BE 1E 7D C3
 D9 C3 40 0E 0D 08 5F 2A 0E 41 42 EF 0B 24 65 CC
 16 E0 40 D8 1F FA 58 41 40 31 A3 0B BC 55 BA C4
 A8 F9 B8 6B 78 A4 AE 01 2D FC F1 FD 89 F0 47 73
 82 68 80 11 DA BF A3 19 1B 13 9F AF 29 7F DF BB
 1E D8 56 35 91 3F 81 A1 B2 14 3A C7 86 24 E9 E7
 F2 C0 87 6F AB FE F8 AF 81 DB D9 AE 20 A9 BE F8
 CC A2 A5 C9 5A 3B 85 40 E3 FA C4 6B 73 49 01 A2
 D0 34 48 B4 63 C9 50 CC 8C BB 28 F0 1C D2 26 18
 92 95 BB 10 B3 26 57 10 6C 3C 33 56 5F 5D 63 3C
 7E 0B 10 B1 76 F5 A9 55 ED 86 D4 32 15 75 E8 53
 E5 7B B8 09 5F 10 2E 18 E1 7E 72 EF 09 6A 89 FE
 44 42 21 3B 3E 03 0E B7 D3 FB 05 10 C3 2B 5D 7D
 29 47 14 EE F7 EB 8E E4 87 91 98 66 20 45 2D BB
 EF DD 8E 37 18 C2 92 D5 F5 42 EA 98 A4 34 77 5C
 97 8D 4C EE 40 86 93 D7 9E 3A 8D 25 94 95 FB 40
 FF 3F 9F DF 4D 7D 94 63 21 40 E2 37 18 6F 0B 38
 A3 42 E7 D7 47 33 48 06 0F C5 0F C3 D3 77 CD B5
 5E 4E 92 1D A6 C5 5E E0 56 5D BD 56 DE 22 23 4F
* End 2762504042 2473355766