Version 4
SymbolType CELL
LINE Normal -48 0 -80 0
LINE Normal -39 -24 -39 -40
LINE Normal -39 25 -39 40
LINE Normal -39 -16 -39 16
LINE Normal 0 -48 0 48
LINE Normal 0 -32 -39 -32
LINE Normal 0 32 -39 32
LINE Normal -16 0 -39 0
LINE Normal -16 -32 -16 0
LINE Normal 8 9 -9 9
LINE Normal 8 -8 -9 -8
LINE Normal -48 -32 -48 32
LINE Normal -16 0 -32 -8
LINE Normal -32 8 -16 0
LINE Normal -32 -8 -32 8
LINE Normal 0 -8 8 9
LINE Normal -9 9 0 -8
CIRCLE Normal -71 -48 24 48
WINDOW 0 32 48 Left 0
WINDOW 3 32 -32 Left 0

SYMATTR Prefix X
SYMATTR SpiceModel ..\sym\EXTRA\IRF\LIB\FILENAME
SYMATTR Value MODEL
SYMATTR Value2 MODEL
SYMATTR Description MODEL

PIN 0 48 NONE 0
PINATTR PinName C
PINATTR SpiceOrder 1
PIN -80 0 NONE 0
PINATTR PinName G
PINATTR SpiceOrder 2
PIN 0 -48 NONE 0
PINATTR PinName E
PINATTR SpiceOrder 3
