Added Component: Designator=GL1(GL5516)
Added Component: Designator=R16(0805)
Added Component: Designator=R17(0805)
Added Component: Designator=R18(0805)
Added Pin To Net: NetName=GND Pin=GL1-2
Added Pin To Net: NetName=GND Pin=R17-1
Added Pin To Net: NetName=VCC3.3 Pin=R18-2
Added Pin To Net: NetName=ADC Pin=IC1-2
Added Pin To Net: NetName=ADC Pin=R16-1
Added Pin To Net: NetName=ADC Pin=R17-2
Added Net: Name=ADC
Added Pin To Net: NetName=NetGL1_1 Pin=GL1-1
Added Pin To Net: NetName=NetGL1_1 Pin=R16-2
Added Pin To Net: NetName=NetGL1_1 Pin=R18-1
Added Net: Name=NetGL1_1
Added Member To Class: ClassName=dimmer Member=Component GL1 GL5516
Added Member To Class: ClassName=dimmer Member=Component MODE PLS-2
Added Member To Class: ClassName=dimmer Member=Component R16 220
Added Member To Class: ClassName=dimmer Member=Component R17 100
Added Member To Class: ClassName=dimmer Member=Component R18 10k
