Removed Pin From Net: NetName=N_IN Pin=IN220-1
Removed Pin From Net: NetName=L_IN Pin=IN220-2
Removed Pin From Net: NetName=L_OUT Pin=OUT220-1
Removed Pin From Net: NetName=N_IN Pin=OUT220-2
Added Component: Designator=IN220(300-021-12)
Added Component: Designator=OUT220(300-021-12)
Added Pin To Net: NetName=N_IN Pin=IN220-1
Added Pin To Net: NetName=L_IN Pin=IN220-2
Added Pin To Net: NetName=L_OUT Pin=OUT220-1
Added Pin To Net: NetName=N_IN Pin=OUT220-2
Added Room: Name=dimmer
