Change Physical Footprint: Designator=IN220 Old Footprint=300-021-12 New Footprint=300-021-12
Change Physical Footprint: Designator=OUT220 Old Footprint=300-021-12 New Footprint=300-021-12
Change Physical Footprint: Designator=Q3 Old Footprint=TO-247AC_VIS New Footprint=TO-247AC_VIS
